\relax 
\providecommand\hyper@newdestlabel[2]{}
\providecommand\HyperFirstAtBeginDocument{\AtBeginDocument}
\HyperFirstAtBeginDocument{\ifx\hyper@anchor\@undefined
\global\let\oldcontentsline\contentsline
\gdef\contentsline#1#2#3#4{\oldcontentsline{#1}{#2}{#3}}
\global\let\oldnewlabel\newlabel
\gdef\newlabel#1#2{\newlabelxx{#1}#2}
\gdef\newlabelxx#1#2#3#4#5#6{\oldnewlabel{#1}{{#2}{#3}}}
\AtEndDocument{\ifx\hyper@anchor\@undefined
\let\contentsline\oldcontentsline
\let\newlabel\oldnewlabel
\fi}
\fi}
\global\let\hyper@last\relax 
\gdef\HyperFirstAtBeginDocument#1{#1}
\providecommand\HyField@AuxAddToFields[1]{}
\providecommand\HyField@AuxAddToCoFields[2]{}
\citation{OEIS}
\citation{DLMF}
\citation{stackoverflowCppFpic}
\citation{stackoverflowCppRelocation}
\citation{Kolmogorov}
\citation{WikiPython}
\citation{ferrer}
\bibstyle{plain}
\bibdata{HW2Bib}
\bibcite{DLMF}{1}
\select@language{english}
\@writefile{toc}{\select@language{english}}
\@writefile{lof}{\select@language{english}}
\@writefile{lot}{\select@language{english}}
\@writefile{toc}{\contentsline {section}{\numberline {1}II.1 and II.2}{1}{section.1}}
\@writefile{toc}{\contentsline {section}{\numberline {2}II.4}{1}{section.2}}
\@writefile{toc}{\contentsline {section}{\numberline {3}II.5}{1}{section.3}}
\bibcite{ferrer}{2}
\bibcite{Kolmogorov}{3}
\bibcite{OEIS}{4}
\bibcite{stackoverflowCppRelocation}{5}
\bibcite{stackoverflowCppFpic}{6}
\bibcite{WikiPython}{7}
