\begin{thebibliography}{1}

\bibitem{computerWeekly}
Cliff Saran.
\newblock Apollo 11: The computers that put man on the moon, 2015.
\newblock
  www.computerweekly.com/feature/Apollo-11-The-computers-that-put-man-on-the-moon.

\end{thebibliography}
